\relax 
\providecommand\hyper@newdestlabel[2]{}
\providecommand*\new@tpo@label[2]{}
\providecommand\HyperFirstAtBeginDocument{\AtBeginDocument}
\HyperFirstAtBeginDocument{\ifx\hyper@anchor\@undefined
\global\let\oldcontentsline\contentsline
\gdef\contentsline#1#2#3#4{\oldcontentsline{#1}{#2}{#3}}
\global\let\oldnewlabel\newlabel
\gdef\newlabel#1#2{\newlabelxx{#1}#2}
\gdef\newlabelxx#1#2#3#4#5#6{\oldnewlabel{#1}{{#2}{#3}}}
\AtEndDocument{\ifx\hyper@anchor\@undefined
\let\contentsline\oldcontentsline
\let\newlabel\oldnewlabel
\fi}
\fi}
\global\let\hyper@last\relax 
\gdef\HyperFirstAtBeginDocument#1{#1}
\providecommand\HyField@AuxAddToFields[1]{}
\providecommand\HyField@AuxAddToCoFields[2]{}
\providecommand\BKM@entry[2]{}
\providecommand\babel@aux[2]{}
\@nameuse{bbl@beforestart}
\catcode `"\active 
\AC@reset@newl@bel
\@input{01_Deckblatt.aux}
\babel@aux{ngerman}{}
\@input{03_Python.aux}
\BKM@entry{id=1,dest={636861707465722E31},srcline={1}}{5C3337365C3337375C303030505C303030795C303030745C303030685C3030306F5C3030306E}
\BKM@entry{id=2,dest={73656374696F6E2E312E31},srcline={2}}{5C3337365C3337375C303030465C3030306F5C303030725C3030306D5C303030755C3030306C5C303030695C303030655C303030725C303030755C3030306E5C30303067}
\BKM@entry{id=3,dest={73756273656374696F6E2E312E312E31},srcline={3}}{5C3337365C3337375C3030304E5C303030615C3030306D5C303030655C3030306E5C303030735C303030675C303030655C303030625C303030755C3030306E5C30303067}
\BKM@entry{id=4,dest={73756273656374696F6E2E312E312E32},srcline={24}}{5C3337365C3337375C303030565C303030615C303030725C303030695C303030615C303030625C3030306C5C303030655C3030306E5C303030645C303030655C303030665C303030695C3030306E5C303030695C303030745C303030695C3030306F5C3030306E}
\BKM@entry{id=5,dest={73656374696F6E2E312E32},srcline={51}}{5C3337365C3337375C303030465C3030306F5C303030725C3030306D5C303030615C303030745C303030695C303030655C303030725C303030755C3030306E5C30303067}
\BKM@entry{id=6,dest={73756273656374696F6E2E312E322E31},srcline={52}}{5C3337365C3337375C303030535C303030655C3030306D5C303030695C3030306B5C3030306F5C3030306C5C3030306F5C3030306E}
\BKM@entry{id=7,dest={73756273656374696F6E2E312E322E32},srcline={54}}{5C3337365C3337375C3030305A5C303030655C303030695C3030306C5C303030655C3030306E5C3030306C5C3030305C3334345C3030306E5C303030675C30303065}
\BKM@entry{id=8,dest={73756273656374696F6E2E312E322E33},srcline={67}}{5C3337365C3337375C303030455C303030695C3030306E5C303030725C3030305C3337345C303030635C3030306B5C303030755C3030306E5C303030675C303030655C3030306E}
\BKM@entry{id=9,dest={73756273656374696F6E2E312E322E34},srcline={84}}{5C3337365C3337375C3030304C5C303030655C303030655C303030725C3030307A5C303030655C303030695C3030306C5C303030655C3030306E}
\BKM@entry{id=10,dest={73756273656374696F6E2E312E322E35},srcline={88}}{5C3337365C3337375C3030304C5C303030655C303030655C303030725C3030307A5C303030655C303030695C303030635C303030685C303030655C3030306E}
\@input{04_HTML.aux}
\BKM@entry{id=11,dest={636861707465722E32},srcline={1}}{5C3337365C3337375C303030485C303030545C3030304D5C3030304C}
\BKM@entry{id=12,dest={73656374696F6E2E322E31},srcline={3}}{5C3337365C3337375C303030415C3030306C5C3030306C5C303030675C303030655C3030306D5C303030655C303030695C3030306E5C303030655C3030305C3034305C303030465C3030306F5C303030725C3030306D5C303030615C303030745C303030695C303030655C303030725C303030755C3030306E5C30303067}
\BKM@entry{id=13,dest={73656374696F6E2E322E32},srcline={25}}{5C3337365C3337375C303030485C303030545C3030304D5C3030304C5C3030302D5C3030305A5C303030655C303030695C3030306C5C303030655C3030306E5C303030755C3030306D5C303030625C303030725C303030755C303030635C30303068}
\BKM@entry{id=14,dest={73656374696F6E2E322E33},srcline={38}}{5C3337365C3337375C303030485C303030545C3030304D5C3030304C5C3030302D5C303030415C3030306E5C303030665C3030305C3337345C303030685C303030725C303030755C3030306E5C303030675C303030735C3030307A5C303030655C303030695C303030635C303030685C303030655C3030306E}
\@input{05_JavaScript.aux}
\BKM@entry{id=15,dest={636861707465722E33},srcline={1}}{5C3337365C3337375C3030304A5C303030615C303030765C303030615C303030535C303030635C303030725C303030695C303030705C30303074}
\BKM@entry{id=16,dest={73656374696F6E2E332E31},srcline={2}}{5C3337365C3337375C3030304B5C3030306C5C303030615C3030306D5C3030306D5C303030655C303030725C3030306E}
\BKM@entry{id=17,dest={73656374696F6E2E332E32},srcline={18}}{5C3337365C3337375C303030535C303030705C303030615C3030306C5C303030745C303030655C3030306E5C303030675C303030725C303030655C3030306E5C3030307A5C30303065}
\BKM@entry{id=18,dest={73656374696F6E2E332E33},srcline={28}}{5C3337365C3337375C3030305A5C303030655C303030695C3030306C5C303030655C3030306E5C303030755C3030306D5C303030625C303030725C303030755C303030635C30303068}
\BKM@entry{id=19,dest={73656374696F6E2E332E34},srcline={36}}{5C3337365C3337375C303030445C303030615C303030745C303030655C303030695C3030306E5C303030615C3030306D5C30303065}
\@input{06_Quellenverzeichnis.aux}
\BKM@entry{id=20,dest={636861707465722E34},srcline={1}}{5C3337365C3337375C303030515C303030755C303030655C3030306C5C3030306C5C303030655C3030306E5C303030765C303030655C303030725C3030307A5C303030655C303030695C303030635C303030685C3030306E5C303030695C30303073}
\BKM@entry{id=21,dest={73656374696F6E2E342E31},srcline={2}}{5C3337365C3337375C303030505C303030795C303030745C303030685C3030306F5C3030306E}
\BKM@entry{id=22,dest={73656374696F6E2E342E32},srcline={9}}{5C3337365C3337375C303030485C303030545C3030304D5C3030304C}
\BKM@entry{id=23,dest={73656374696F6E2E342E33},srcline={16}}{5C3337365C3337375C3030304A5C303030615C303030765C303030615C303030535C303030635C303030725C303030695C303030705C30303074}
\bibstyle{unsrtdin}
\bibdata{Literatur}
\global\@namedef{scr@dte@chapter@lastmaxnumwidth}{11.8799pt}
\global\@namedef{scr@dte@section@lastmaxnumwidth}{19.71382pt}
\global\@namedef{scr@dte@subsection@lastmaxnumwidth}{28.8528pt}
\@writefile{toc}{\providecommand\tocbasic@end@toc@file{}\tocbasic@end@toc@file}
\gdef \@abspage@last{10}
