\relax 
\providecommand\hyper@newdestlabel[2]{}
\@writefile{toc}{\contentsline {chapter}{\numberline {1}Python}{3}{chapter.1}\protected@file@percent }
\@writefile{lof}{\addvspace {10\p@ }}
\@writefile{lot}{\addvspace {10\p@ }}
\@writefile{lol}{\addvspace {10\p@ }}
\@writefile{toc}{\contentsline {section}{\numberline {1.1}Formulierung}{3}{section.1.1}\protected@file@percent }
\@writefile{toc}{\contentsline {subsection}{\numberline {1.1.1}Namensgebung}{3}{subsection.1.1.1}\protected@file@percent }
\@writefile{toc}{\contentsline {subsection}{\numberline {1.1.2}Variablendefinition}{4}{subsection.1.1.2}\protected@file@percent }
\@writefile{lol}{\contentsline {lstlisting}{Name}{4}{lstlisting.1.-4}\protected@file@percent }
\@writefile{toc}{\contentsline {section}{\numberline {1.2}Formatierung}{4}{section.1.2}\protected@file@percent }
\@writefile{toc}{\contentsline {subsection}{\numberline {1.2.1}Semikolon}{4}{subsection.1.2.1}\protected@file@percent }
\@writefile{toc}{\contentsline {subsection}{\numberline {1.2.2}Zeilenlänge}{4}{subsection.1.2.2}\protected@file@percent }
\@writefile{toc}{\contentsline {subsection}{\numberline {1.2.3}Einrückungen}{5}{subsection.1.2.3}\protected@file@percent }
\@writefile{toc}{\contentsline {subsection}{\numberline {1.2.4}Leerzeilen}{5}{subsection.1.2.4}\protected@file@percent }
\@writefile{toc}{\contentsline {subsection}{\numberline {1.2.5}Leerzeichen}{5}{subsection.1.2.5}\protected@file@percent }
\@setckpt{03_Python}{
\setcounter{page}{6}
\setcounter{equation}{0}
\setcounter{enumi}{0}
\setcounter{enumii}{0}
\setcounter{enumiii}{0}
\setcounter{enumiv}{0}
\setcounter{footnote}{0}
\setcounter{mpfootnote}{0}
\setcounter{part}{0}
\setcounter{chapter}{1}
\setcounter{section}{2}
\setcounter{subsection}{5}
\setcounter{subsubsection}{0}
\setcounter{paragraph}{0}
\setcounter{subparagraph}{0}
\setcounter{figure}{0}
\setcounter{table}{0}
\setcounter{Item}{0}
\setcounter{Hfootnote}{0}
\setcounter{bookmark@seq@number}{0}
\setcounter{caption@flags}{0}
\setcounter{continuedfloat}{0}
\setcounter{KVtest}{0}
\setcounter{subfigure}{0}
\setcounter{subfigure@save}{0}
\setcounter{lofdepth}{1}
\setcounter{subtable}{0}
\setcounter{subtable@save}{0}
\setcounter{lotdepth}{1}
\setcounter{lstnumber}{8}
\setcounter{parentequation}{0}
\setcounter{section@level}{2}
\setcounter{lstlisting}{0}
}
