\relax 
\providecommand\hyper@newdestlabel[2]{}
\providecommand*\new@tpo@label[2]{}
\providecommand\HyperFirstAtBeginDocument{\AtBeginDocument}
\HyperFirstAtBeginDocument{\ifx\hyper@anchor\@undefined
\global\let\oldcontentsline\contentsline
\gdef\contentsline#1#2#3#4{\oldcontentsline{#1}{#2}{#3}}
\global\let\oldnewlabel\newlabel
\gdef\newlabel#1#2{\newlabelxx{#1}#2}
\gdef\newlabelxx#1#2#3#4#5#6{\oldnewlabel{#1}{{#2}{#3}}}
\AtEndDocument{\ifx\hyper@anchor\@undefined
\let\contentsline\oldcontentsline
\let\newlabel\oldnewlabel
\fi}
\fi}
\global\let\hyper@last\relax 
\gdef\HyperFirstAtBeginDocument#1{#1}
\providecommand\HyField@AuxAddToFields[1]{}
\providecommand\HyField@AuxAddToCoFields[2]{}
\providecommand\BKM@entry[2]{}
\providecommand\babel@aux[2]{}
\@nameuse{bbl@beforestart}
\catcode `"\active 
\AC@reset@newl@bel
\@input{01_Deckblatt.aux}
\babel@aux{ngerman}{}
\@input{02_Text.aux}
\BKM@entry{id=1,dest={636861707465722E31},srcline={1}}{5C3337365C3337375C303030455C303030695C3030306E5C3030306C5C303030655C303030695C303030745C303030755C3030306E5C30303067}
\BKM@entry{id=2,dest={73656374696F6E2E312E31},srcline={5}}{5C3337365C3337375C3030304D5C303030755C303030735C303030735C3030306B5C303030725C303030695C303030745C303030655C303030725C303030695C303030655C3030306E}
\BKM@entry{id=3,dest={73656374696F6E2E312E32},srcline={8}}{5C3337365C3337375C303030575C303030755C3030306E5C303030735C303030635C303030685C3030306B5C303030725C303030695C303030745C303030655C303030725C303030695C303030655C3030306E}
\BKM@entry{id=4,dest={636861707465722E32},srcline={19}}{5C3337365C3337375C303030505C303030725C3030306F5C303030645C303030755C3030306B5C303030745C303030655C303030695C3030306E5C303030735C303030615C303030745C3030307A}
\BKM@entry{id=5,dest={73656374696F6E2E322E31},srcline={21}}{5C3337365C3337375C303030415C3030306E5C303030775C303030655C3030306E5C303030645C303030755C3030306E5C303030675C303030735C303030625C303030655C303030725C303030655C303030695C303030635C30303068}
\BKM@entry{id=6,dest={73656374696F6E2E322E32},srcline={24}}{5C3337365C3337375C303030425C303030655C303030745C303030725C303030695C303030655C303030625C303030735C303030625C303030655C303030645C303030695C3030306E5C303030755C3030306E5C303030675C303030655C3030306E}
\BKM@entry{id=7,dest={73656374696F6E2E322E33},srcline={27}}{5C3337365C3337375C3030305A5C303030695C303030655C3030306C5C303030675C303030725C303030755C303030705C303030705C30303065}
\BKM@entry{id=8,dest={636861707465722E33},srcline={32}}{5C3337365C3337375C303030515C303030755C303030615C3030306C5C303030695C303030745C3030305C3334345C303030745C303030735C303030615C3030306E5C303030665C3030306F5C303030725C303030645C303030655C303030725C303030755C3030306E5C30303067}
\BKM@entry{id=9,dest={73656374696F6E2E332E31},srcline={34}}{5C3337365C3337375C303030425C303030655C3030306E5C303030755C303030745C3030307A5C303030655C303030725C303030665C303030725C303030655C303030755C3030306E5C303030645C3030306C5C303030695C303030635C303030685C3030306B5C303030655C303030695C30303074}
\BKM@entry{id=10,dest={73656374696F6E2E332E32},srcline={37}}{5C3337365C3337375C303030505C3030306F5C303030725C303030745C303030615C303030625C303030695C3030306C5C303030695C303030745C3030305C3334345C30303074}
\BKM@entry{id=11,dest={73656374696F6E2E332E33},srcline={40}}{5C3337365C3337375C303030465C303030655C303030685C3030306C5C303030655C303030725C303030765C303030655C303030725C303030615C303030725C303030625C303030655C303030695C303030745C303030755C3030306E5C30303067}
\BKM@entry{id=12,dest={73656374696F6E2E332E34},srcline={43}}{5C3337365C3337375C303030455C303030725C303030775C303030655C303030695C303030745C303030655C303030725C303030755C3030306E5C303030675C303030735C303030665C3030305C3334345C303030685C303030695C303030675C3030306B5C303030655C303030695C30303074}
\BKM@entry{id=13,dest={636861707465722E34},srcline={48}}{5C3337365C3337375C303030505C303030725C3030306F5C303030645C303030755C3030306B5C303030745C303030665C303030755C3030306E5C3030306B5C303030745C303030695C3030306F5C3030306E5C303030655C3030306E}
\BKM@entry{id=14,dest={636861707465722E35},srcline={75}}{5C3337365C3337375C303030505C303030725C3030306F5C303030645C303030755C3030306B5C303030745C303030645C303030615C303030745C303030655C3030306E}
\BKM@entry{id=15,dest={636861707465722E36},srcline={82}}{5C3337365C3337375C303030505C303030725C3030306F5C303030645C303030755C3030306B5C303030745C3030306C5C303030655C303030695C303030735C303030745C303030755C3030306E5C30303067}
\global\@namedef{scr@dte@chapter@lastmaxnumwidth}{11.8799pt}
\global\@namedef{scr@dte@section@lastmaxnumwidth}{19.71382pt}
\@writefile{toc}{\providecommand\tocbasic@end@toc@file{}\tocbasic@end@toc@file}
\gdef \@abspage@last{9}
